'Task archive'!_FilterDatabase,='Task archive'!$A$3:$J$4,
Tasklist!_FilterDatabase,=Tasklist!$A$3:$I$3,
'Task archive'!Pivot_Daten,='Task archive'!$A$4:$I$4,
Pivot_Daten,=Tasklist!$A$4:$I$4,
'Task archive'!Print_Area,='Task archive'!$A:$I,
Tasklist!Print_Area,=Tasklist!$A:$I,
'Task archive'!Print_Titles,='Task archive'!$1:$2,
Tasklist!Print_Titles,=Tasklist!$1:$1,
'Task archive'!Z_DD82F575_A535_4B32_AF3A_460CEC5F0AB4_.wvu.FilterData,='Task archive'!$A$3:$I$4,
Tasklist!Z_DD82F575_A535_4B32_AF3A_460CEC5F0AB4_.wvu.FilterData,=Tasklist!$A$3:$I$4,
'Task archive'!Z_DD82F575_A535_4B32_AF3A_460CEC5F0AB4_.wvu.PrintArea,='Task archive'!$A:$H,
Tasklist!Z_DD82F575_A535_4B32_AF3A_460CEC5F0AB4_.wvu.PrintArea,=Tasklist!$A:$H,
'Task archive'!Z_DD82F575_A535_4B32_AF3A_460CEC5F0AB4_.wvu.PrintTitles,='Task archive'!$1:$2,
Tasklist!Z_DD82F575_A535_4B32_AF3A_460CEC5F0AB4_.wvu.PrintTitles,=Tasklist!$1:$1,
